<?xml version="1.0" encoding="UTF-8" standalone="no"?>
<svg
   xmlns:dc="http://purl.org/dc/elements/1.1/"
   xmlns:cc="http://creativecommons.org/ns#"
   xmlns:rdf="http://www.w3.org/1999/02/22-rdf-syntax-ns#"
   xmlns:svg="http://www.w3.org/2000/svg"
   xmlns="http://www.w3.org/2000/svg"
   xmlns:sodipodi="http://sodipodi.sourceforge.net/DTD/sodipodi-0.dtd"
   xmlns:inkscape="http://www.inkscape.org/namespaces/inkscape"
   width="100mm"
   height="100mm"
   viewBox="0 0 100 100"
   version="1.1"
   id="svg4491"
   sodipodi:docname="rewind.svg"
   inkscape:version="0.92.2 5c3e80d, 2017-08-06">
  <sodipodi:namedview
     pagecolor="#ffffff"
     bordercolor="#666666"
     borderopacity="1"
     objecttolerance="10"
     gridtolerance="10"
     guidetolerance="10"
     inkscape:pageopacity="0"
     inkscape:pageshadow="2"
     inkscape:window-width="1920"
     inkscape:window-height="1019"
     id="namedview4554"
     showgrid="false"
     inkscape:zoom="1.7885677"
     inkscape:cx="62.908071"
     inkscape:cy="153.33321"
     inkscape:window-x="0"
     inkscape:window-y="0"
     inkscape:window-maximized="1"
     inkscape:current-layer="svg4491" />
  <defs
     id="defs4485" />
  <metadata
     id="metadata4488">
    <rdf:RDF>
      <cc:Work
         rdf:about="">
        <dc:format>image/svg+xml</dc:format>
        <dc:type
           rdf:resource="http://purl.org/dc/dcmitype/StillImage" />
        <dc:title />
      </cc:Work>
    </rdf:RDF>
  </metadata>
  <rect
     style="fill:#ffcdd2;fill-opacity:1;stroke-width:0.26458332"
     id="rect816"
     width="100"
     height="100"
     x="0"
     y="-7.6293941e-07" />
  <path
     d="M 49.927975,23.107355 A 30.000002,29.416664 0 0 1 79.026409,46.305778 30.000002,29.416664 0 0 1 62.302574,79.220243 30.000002,29.416664 0 0 1 25.891012,70.414912 30.000002,29.416664 0 0 1 26.692517,33.649984"
     id="path4632"
     style="opacity:1;fill:none;fill-opacity:1;stroke:#d32f2f;stroke-width:12;stroke-miterlimit:4;stroke-dasharray:none;stroke-dashoffset:0;stroke-opacity:1"
     inkscape:connector-curvature="0" />
  <path
     d="M 33.747002,23.967199 59.32201,7.5986251 l 2e-6,32.7371439 z"
     id="path4634"
     style="opacity:1;fill:#d32f2f;fill-opacity:1;stroke:none;stroke-width:8.10801315;stroke-miterlimit:4;stroke-dasharray:none;stroke-dashoffset:0;stroke-opacity:1"
     inkscape:connector-curvature="0" />
</svg>
